** Waffle model 2014
#cont
#avs 1 1e20
#geo
#liquid
#head
#material
#endavs
head 1000
nobr
bous
1
airw
1
20.0 0.1
pres
1 0 0 1000 1 2

zonn
file
infiltration.zonn
hyco
file
w01.hyco
rock
1 0 0 2500. 1010. 1.0E-02

rlp
1 0. 0. 1. 1. 0. 1.

1 0 0 1

ppor
file
w01.ppor
zonn
file
../../../smoothgrid2/out_west.zonn
zonn
file
../../../smoothgrid2/out_east.zonn
flow
file
w01.flow
time
1 1432.0 10000 001 2014 1 0
0.0 -1.2 1.0 365.25
0.406 -1.2 1.0 365.25
0.5 -1.2 1.0 365.25
3.427 -1.2 1.0 365.25
3.667 -1.2 1.0 365.25
9.365 -1.2 1.0 365.25
9.688 -1.2 1.0 365.25
10.0 -1.2 1.0 365.25
10.396 -1.2 1.0 365.25
10.563 -1.2 1.0 365.25
10.646 -1.2 1.0 365.25
10.667 -1.2 1.0 365.25
12.346 -1.2 1.0 365.25
12.431 -1.2 1.0 365.25
12.517 -1.2 1.0 365.25
12.605 -1.2 1.0 365.25
12.691 -1.2 1.0 365.25
12.776 -1.2 1.0 365.25
14.339 -1.2 1.0 365.25
15.338 -1.2 1.0 365.25
16.361 -1.2 1.0 365.25
20.0 -1.2 1.0 365.25
30.0 -1.2 1.0 365.25
40.0 -1.2 1.0 365.25
50.0 -1.2 1.0 365.25
60.0 -1.2 1.0 365.25
68.376 -1.2 1.0 365.25
70.0 -1.2 1.0 365.25
73.459 -1.2 1.0 365.25
80.0 -1.2 1.0 365.25
82.459 -1.2 1.0 365.25
84.417 -1.2 1.0 365.25
90.0 -1.2 1.0 365.25
100.0 -1.2 1.0 365.25
110.0 -1.2 1.0 365.25
120.0 -1.2 1.0 365.25
130.0 -1.2 1.0 365.25
140.0 -1.2 1.0 365.25
150.0 -1.2 1.0 365.25
160.0 -1.2 1.0 365.25
170.0 -1.2 1.0 365.25
180.0 -1.2 1.0 365.25
190.0 -1.2 1.0 365.25
200.0 -1.2 1.0 365.25
210.0 -1.2 1.0 365.25
220.0 -1.2 1.0 365.25
230.0 -1.2 1.0 365.25
240.0 -1.2 1.0 365.25
250.0 -1.2 1.0 365.25
260.0 -1.2 1.0 365.25
270.0 -1.2 1.0 365.25
280.0 -1.2 1.0 365.25
290.0 -1.2 1.0 365.25
300.0 -1.2 1.0 365.25
310.0 -1.2 1.0 365.25
320.0 -1.2 1.0 365.25
330.0 -1.2 1.0 365.25
340.0 -1.2 1.0 365.25
350.0 -1.2 1.0 365.25
360.0 -1.2 1.0 365.25
370.0 -1.2 1.0 365.25
380.0 -1.2 1.0 365.25
390.0 -1.2 1.0 365.25
400.0 -1.2 1.0 365.25
410.0 -1.2 1.0 365.25
420.0 -1.2 1.0 365.25
430.0 -1.2 1.0 365.25
440.0 -1.2 1.0 365.25
450.0 -1.2 1.0 365.25
460.0 -1.2 1.0 365.25
470.0 -1.2 1.0 365.25
480.0 -1.2 1.0 365.25
490.0 -1.2 1.0 365.25
500.0 -1.2 1.0 365.25
510.0 -1.2 1.0 365.25
520.0 -1.2 1.0 365.25
530.0 -1.2 1.0 365.25
540.0 -1.2 1.0 365.25
550.0 -1.2 1.0 365.25
560.0 -1.2 1.0 365.25
570.0 -1.2 1.0 365.25
580.0 -1.2 1.0 365.25
590.0 -1.2 1.0 365.25
600.0 -1.2 1.0 365.25
610.0 -1.2 1.0 365.25
620.0 -1.2 1.0 365.25
626.375 -1.2 1.0 365.25
630.0 -1.2 1.0 365.25
636.375 -1.2 1.0 365.25
640.0 -1.2 1.0 365.25
650.0 -1.2 1.0 365.25
660.0 -1.2 1.0 365.25
670.0 -1.2 1.0 365.25
680.0 -1.2 1.0 365.25
690.0 -1.2 1.0 365.25
700.0 -1.2 1.0 365.25
710.0 -1.2 1.0 365.25
720.0 -1.2 1.0 365.25
730.0 -1.2 1.0 365.25
740.0 -1.2 1.0 365.25
750.0 -1.2 1.0 365.25
760.0 -1.2 1.0 365.25
770.0 -1.2 1.0 365.25
780.0 -1.2 1.0 365.25
790.0 -1.2 1.0 365.25
800.0 -1.2 1.0 365.25
810.0 -1.2 1.0 365.25
820.0 -1.2 1.0 365.25
830.0 -1.2 1.0 365.25
840.0 -1.2 1.0 365.25
850.0 -1.2 1.0 365.25
860.0 -1.2 1.0 365.25
870.0 -1.2 1.0 365.25
880.0 -1.2 1.0 365.25
890.0 -1.2 1.0 365.25
900.0 -1.2 1.0 365.25
910.0 -1.2 1.0 365.25
920.0 -1.2 1.0 365.25
930.0 -1.2 1.0 365.25
940.0 -1.2 1.0 365.25
950.0 -1.2 1.0 365.25
960.0 -1.2 1.0 365.25
970.0 -1.2 1.0 365.25
980.0 -1.2 1.0 365.25
990.0 -1.2 1.0 365.25
1000.0 -1.2 1.0 365.25
1010.0 -1.2 1.0 365.25
1020.0 -1.2 1.0 365.25
1030.0 -1.2 1.0 365.25
1040.0 -1.2 1.0 365.25
1050.0 -1.2 1.0 365.25
1060.0 -1.2 1.0 365.25
1070.0 -1.2 1.0 365.25
1080.0 -1.2 1.0 365.25
1090.0 -1.2 1.0 365.25
1100.0 -1.2 1.0 365.25
1110.0 -1.2 1.0 365.25
1114.522 -1.2 1.0 365.25
1120.0 -1.2 1.0 365.25
1130.0 -1.2 1.0 365.25
1134.292 -1.2 1.0 365.25
1138.5 -1.2 1.0 365.25
1140.0 -1.2 1.0 365.25
1150.0 -1.2 1.0 365.25
1160.0 -1.2 1.0 365.25
1170.0 -1.2 1.0 365.25
1179.513 -1.2 1.0 365.25
1180.0 -1.2 1.0 365.25
1186.667 -1.2 1.0 365.25
1188.667 -1.2 1.0 365.25
1190.0 -1.2 1.0 365.25
1196.542 -1.2 1.0 365.25
1200.0 -1.2 1.0 365.25
1210.0 -1.2 1.0 365.25
1220.0 -1.2 1.0 365.25
1230.0 -1.2 1.0 365.25
1240.0 -1.2 1.0 365.25
1250.0 -1.2 1.0 365.25
1260.0 -1.2 1.0 365.25
1270.0 -1.2 1.0 365.25
1272.375 -1.2 1.0 365.25
1280.0 -1.2 1.0 365.25
1290.0 -1.2 1.0 365.25
1300.0 -1.2 1.0 365.25
1310.0 -1.2 1.0 365.25
1320.0 -1.2 1.0 365.25
1330.0 -1.2 1.0 365.25
1340.0 -1.2 1.0 365.25
1350.0 -1.2 1.0 365.25
1360.0 -1.2 1.0 365.25
1370.0 -1.2 1.0 365.25
1380.0 -1.2 1.0 365.25
1390.0 -1.2 1.0 365.25
1400.0 -1.2 1.0 365.25
1410.0 -1.2 1.0 365.25
1420.0 -1.2 1.0 365.25
1430.0 -1.2 1.0 365.25
1432.0 -1.2 1.0 365.25

ctrl
5 1e-6 1 350 bcgs
1 0 0 2

1.0 0 1.0
10 1000 1e-20 1e20
0 1
sol
1 -1
iter
1e-5 1e-5 0.1 1e-4 1.1
13 0 0 5 120.
zonn
file
../../../smoothgrid2/well_screens.zonn
flxz
12
4280001 4420001 8080000 8190000 8210000 2010004 2020001 2020002 2020003 2020004 2020005 2020006
node
file
w01.node
boun
file
w01.boun
hist
tecplot
meters
days
end
stop
