497954.59464 538895.925 1700.0
498762.49752 538301.558904 1700.0
499881.58215 538267.608756 1700.0
500618.566452 538692.975444 1700.0
500304.758088 539122.272528 1700.0
499368.880356 539059.26732 1700.0
498442.06128 538969.458 1700.0
501062.874936 538806.127872 1700.0
498987.10464 538710.365808 1700.0
498511.964112 539325.619848 1700.0
499859.597688 539298.968136 1700.0
499444.900524 538672.505076 1774.0
499657.530528 538675.938648 1774.0
499686.2244 538814.298036 1774.0
499494.064764 538866.243576 1774.0
499299.180216 538929.81876 1774.0
499205.734632 538723.580412 1774.0
499755.92454 538943.746596 1774.0
499711.681296 539147.330136 1774.0
499368.880356 539059.26732 1774.0
498905.185576 539275.674304 1774.0
498778.78146 539032.07154 1774.0
498026.751468 539349.97794 1774.0
498151.451244 539009.10486 1774.0
498865.398 536571.861576 1700.0
498537.8904 537892.752 1700.0
498865.398 536571.861576 1774.0
498537.8904 537892.752 1774.0
499516.796748 539210.90532 1774.0
499444.597248 539338.764348 1774.0
498371.311104 539702.956152 1774.0
497541.538824 539374.336032 1774.0
498505.94736 538251.654 1700.0
498474.00432 538610.556 1700.0
499214.293416 538253.91714 1700.0
498505.94736 538251.654 1774.0
498474.00432 538610.556 1774.0
499214.293416 538253.91714 1774.0
498442.06128 538969.458 1774.0
497860.841208 539048.75172 1774.0
500553.150276 539289.644304 1774.0
500553.150276 539289.644304 1700.0
498511.964112 539325.619848 1774.0
499029.596808 539378.56056 1774.0
499029.596808 539378.56056 1700.0
499948.084176 538891.801056 1760.0