497541.54	539374.34	1779.1
499859.6	539298.97	1770.06
500174.26	538579.82	1732.645
498442.06	538969.46	1777.15
499563.76	538995.69	1762.48
497860.84	539048.75	1781.9650000000001
497860.84	539048.75	1748.33
500968.01	537675.97	1747.98
500581.13	539285.95	1702.435
500553.15	539289.64	1764.26
501062.87	538806.13	1771.795
499174	539122.84	1772.9250000000002
499029.6	539378.56	1773.445
499029.6	539378.56	1755.205
499890.7	538615.08	1772.385
499890.7	538615.08	1744.88
499948.08	538891.8	1773.635
499948.08	538891.8	1743.19
499465.44	538608.22	1774.58
499465.44	538608.22	1740.045
498987.1	538710.37	1770.9250000000002
498987.1	538710.37	1740.23
498511.96	539325.62	1772.755
499423.26	538733.92	1771
499551.74	538942.55	1771
499902.05	538970.11	1771
499842.53	538838.77	1771
499754.07	538616.22	1771
499599.91	538564.59	1771
499306.92	538555.7	1771
502229.39940000005	538920.5741760001	1465.4784
498865.39800000004	536571.8615760001	1546.2504
500661.43200000003	539352.7440000001	1483.1568000000002
498537.89040000003	537892.752	1482.2424
497467.128	538822.392	1474.9272
502735.977	540176.350176	1417.0152000000003
499060.43037600006	540408.9125760001	1454.3532
497954.59464	538895.925	1700
498762.49752000003	538301.558904	1700
499881.58215000003	538267.6087560001	1700
500618.56645200006	538692.975444	1700
500304.758088	539122.2725280001	1700
499368.88035600004	539059.2673200001	1700
498442.0612800001	538969.458	1700
501062.87493600004	538806.127872	1700
498987.10464000003	538710.365808	1700
498511.964112	539325.619848	1700
499859.59768800007	539298.9681360001	1700
499444.35619692004	538671.07618884	1774
499656.98620092	538674.5097608401	1774
499685.68007292005	538812.86914884	1774
499493.52043692	538864.81468884	1774
499298.63588892005	538928.38987284	1774
499205.19030492	538722.1515248399	1774
499755.92454000004	538943.746596	1774
499711.681296	539147.3301360001	1774
499368.88035600004	539059.2673200001	1774
498905.185576	539275.674304	1774
498778.78146	539032.07154	1774
498026.751468	539349.97794	1774
498151.45124400005	539009.10486	1774
498701.64420000004	537232.306788	1700
498701.64420000004	537232.306788	1774
499516.7967480001	539210.9053200001	1774
499444.59724800003	539338.764348	1774
498371.311104	539702.956152	1774
498505.94736000005	538251.654	1700
498474.00432000007	538610.556	1700
499214.29341600003	538253.91714	1700
498505.94736000005	538251.654	1774
498474.00432000007	538610.556	1774
499214.29341600003	538253.91714	1774
500553.1502760001	539289.6443040001	1700
499029.596808	539378.56056	1700
