** Waffle model 2014
#cont
#avs 1 1e20
#geo
#liquid
#head
#material
#endavs
head 1000
nobr
bous
1
airw
1
20.0 0.1
pres
1 0 0 1000 1 2

zonn
file
infiltration.zonn
hyco
file
w01.hyco
rock
1 0 0 2500. 1010. 1.0E-02

rlp
1 0. 0. 1. 1. 0. 1.

1 0 0 1

ppor
file
w01.ppor
zonn
file
../../../smoothgrid2/out_west.zonn
zonn
file
../../../smoothgrid2/out_east.zonn
flow
file
w01.flow
time
1 1830.0 10000 001 2014 1 0
0.0 -1.2 1.0 365.25
10.0 -1.2 1.0 365.25
20.0 -1.2 1.0 365.25
30.0 -1.2 1.0 365.25
40.0 -1.2 1.0 365.25
45.375 -1.2 1.0 365.25
50.0 -1.2 1.0 365.25
55.375 -1.2 1.0 365.25
60.0 -1.2 1.0 365.25
70.0 -1.2 1.0 365.25
80.0 -1.2 1.0 365.25
90.0 -1.2 1.0 365.25
100.0 -1.2 1.0 365.25
110.0 -1.2 1.0 365.25
120.0 -1.2 1.0 365.25
130.0 -1.2 1.0 365.25
140.0 -1.2 1.0 365.25
150.0 -1.2 1.0 365.25
160.0 -1.2 1.0 365.25
170.0 -1.2 1.0 365.25
180.0 -1.2 1.0 365.25
190.0 -1.2 1.0 365.25
200.0 -1.2 1.0 365.25
210.0 -1.2 1.0 365.25
220.0 -1.2 1.0 365.25
230.0 -1.2 1.0 365.25
240.0 -1.2 1.0 365.25
250.0 -1.2 1.0 365.25
260.0 -1.2 1.0 365.25
270.0 -1.2 1.0 365.25
280.0 -1.2 1.0 365.25
290.0 -1.2 1.0 365.25
300.0 -1.2 1.0 365.25
310.0 -1.2 1.0 365.25
320.0 -1.2 1.0 365.25
330.0 -1.2 1.0 365.25
340.0 -1.2 1.0 365.25
350.0 -1.2 1.0 365.25
360.0 -1.2 1.0 365.25
370.0 -1.2 1.0 365.25
380.0 -1.2 1.0 365.25
390.0 -1.2 1.0 365.25
400.0 -1.2 1.0 365.25
410.0 -1.2 1.0 365.25
420.0 -1.2 1.0 365.25
430.0 -1.2 1.0 365.25
440.0 -1.2 1.0 365.25
450.0 -1.2 1.0 365.25
460.0 -1.2 1.0 365.25
470.0 -1.2 1.0 365.25
480.0 -1.2 1.0 365.25
490.0 -1.2 1.0 365.25
500.0 -1.2 1.0 365.25
510.0 -1.2 1.0 365.25
520.0 -1.2 1.0 365.25
530.0 -1.2 1.0 365.25
533.5222222222222 -1.2 1.0 365.25
540.0 -1.2 1.0 365.25
550.0 -1.2 1.0 365.25
553.2916666666666 -1.2 1.0 365.25
557.5 -1.2 1.0 365.25
560.0 -1.2 1.0 365.25
570.0 -1.2 1.0 365.25
580.0 -1.2 1.0 365.25
590.0 -1.2 1.0 365.25
598.5131944444445 -1.2 1.0 365.25
600.0 -1.2 1.0 365.25
605.6666666666666 -1.2 1.0 365.25
607.6666666666666 -1.2 1.0 365.25
610.0 -1.2 1.0 365.25
615.5416666666666 -1.2 1.0 365.25
620.0 -1.2 1.0 365.25
630.0 -1.2 1.0 365.25
640.0 -1.2 1.0 365.25
650.0 -1.2 1.0 365.25
660.0 -1.2 1.0 365.25
670.0 -1.2 1.0 365.25
680.0 -1.2 1.0 365.25
690.0 -1.2 1.0 365.25
691.375 -1.2 1.0 365.25
700.0 -1.2 1.0 365.25
710.0 -1.2 1.0 365.25
720.0 -1.2 1.0 365.25
730.0 -1.2 1.0 365.25
740.0 -1.2 1.0 365.25
750.0 -1.2 1.0 365.25
760.0 -1.2 1.0 365.25
770.0 -1.2 1.0 365.25
780.0 -1.2 1.0 365.25
790.0 -1.2 1.0 365.25
800.0 -1.2 1.0 365.25
810.0 -1.2 1.0 365.25
820.0 -1.2 1.0 365.25
830.0 -1.2 1.0 365.25
840.0 -1.2 1.0 365.25
841.4305555555555 -1.2 1.0 365.25
849.3541666666666 -1.2 1.0 365.25
850.0 -1.2 1.0 365.25
860.0 -1.2 1.0 365.25
870.0 -1.2 1.0 365.25
878.3680555555555 -1.2 1.0 365.25
878.65625 -1.2 1.0 365.25
879.6458333333334 -1.2 1.0 365.25
880.0 -1.2 1.0 365.25
880.4166666666666 -1.2 1.0 365.25
880.9375 -1.2 1.0 365.25
881.4166666666666 -1.2 1.0 365.25
884.2916666666666 -1.2 1.0 365.25
890.0 -1.2 1.0 365.25
900.0 -1.2 1.0 365.25
910.0 -1.2 1.0 365.25
920.0 -1.2 1.0 365.25
930.0 -1.2 1.0 365.25
940.0 -1.2 1.0 365.25
950.0 -1.2 1.0 365.25
960.0 -1.2 1.0 365.25
970.0 -1.2 1.0 365.25
980.0 -1.2 1.0 365.25
990.0 -1.2 1.0 365.25
992.40625 -1.2 1.0 365.25
992.5 -1.2 1.0 365.25
995.4270833333334 -1.2 1.0 365.25
995.6666666666666 -1.2 1.0 365.25
1000.0 -1.2 1.0 365.25
1001.3645833333334 -1.2 1.0 365.25
1001.6875 -1.2 1.0 365.25
1002.3958333333334 -1.2 1.0 365.25
1002.5625 -1.2 1.0 365.25
1002.6458333333334 -1.2 1.0 365.25
1002.6666666666666 -1.2 1.0 365.25
1004.3458333333333 -1.2 1.0 365.25
1004.4305555555555 -1.2 1.0 365.25
1004.5173611111111 -1.2 1.0 365.25
1004.6048611111111 -1.2 1.0 365.25
1004.6909722222222 -1.2 1.0 365.25
1004.7763888888888 -1.2 1.0 365.25
1006.3388888888888 -1.2 1.0 365.25
1007.3381944444444 -1.2 1.0 365.25
1008.3611111111111 -1.2 1.0 365.25
1010.0 -1.2 1.0 365.25
1020.0 -1.2 1.0 365.25
1030.0 -1.2 1.0 365.25
1040.0 -1.2 1.0 365.25
1050.0 -1.2 1.0 365.25
1060.0 -1.2 1.0 365.25
1060.3756944444444 -1.2 1.0 365.25
1065.4590277777777 -1.2 1.0 365.25
1070.0 -1.2 1.0 365.25
1074.4590277777777 -1.2 1.0 365.25
1076.4173611111112 -1.2 1.0 365.25
1080.0 -1.2 1.0 365.25
1090.0 -1.2 1.0 365.25
1100.0 -1.2 1.0 365.25
1110.0 -1.2 1.0 365.25
1120.0 -1.2 1.0 365.25
1130.0 -1.2 1.0 365.25
1140.0 -1.2 1.0 365.25
1150.0 -1.2 1.0 365.25
1160.0 -1.2 1.0 365.25
1170.0 -1.2 1.0 365.25
1180.0 -1.2 1.0 365.25
1190.0 -1.2 1.0 365.25
1200.0 -1.2 1.0 365.25
1210.0 -1.2 1.0 365.25
1220.0 -1.2 1.0 365.25
1230.0 -1.2 1.0 365.25
1240.0 -1.2 1.0 365.25
1250.0 -1.2 1.0 365.25
1260.0 -1.2 1.0 365.25
1270.0 -1.2 1.0 365.25
1280.0 -1.2 1.0 365.25
1290.0 -1.2 1.0 365.25
1300.0 -1.2 1.0 365.25
1310.0 -1.2 1.0 365.25
1320.0 -1.2 1.0 365.25
1330.0 -1.2 1.0 365.25
1340.0 -1.2 1.0 365.25
1350.0 -1.2 1.0 365.25
1360.0 -1.2 1.0 365.25
1370.0 -1.2 1.0 365.25
1380.0 -1.2 1.0 365.25
1390.0 -1.2 1.0 365.25
1400.0 -1.2 1.0 365.25
1401.4618055555557 -1.2 1.0 365.25
1401.999988425926 -1.2 1.0 365.25
1402.0 -1.2 1.0 365.25
1402.999988425926 -1.2 1.0 365.25
1403.0 -1.2 1.0 365.25
1403.999988425926 -1.2 1.0 365.25
1404.0 -1.2 1.0 365.25
1404.999988425926 -1.2 1.0 365.25
1405.0 -1.2 1.0 365.25
1405.999988425926 -1.2 1.0 365.25
1406.0 -1.2 1.0 365.25
1406.999988425926 -1.2 1.0 365.25
1407.0 -1.2 1.0 365.25
1407.999988425926 -1.2 1.0 365.25
1408.0 -1.2 1.0 365.25
1408.999988425926 -1.2 1.0 365.25
1409.0 -1.2 1.0 365.25
1409.999988425926 -1.2 1.0 365.25
1410.0 -1.2 1.0 365.25
1410.999988425926 -1.2 1.0 365.25
1411.0 -1.2 1.0 365.25
1411.999988425926 -1.2 1.0 365.25
1412.0 -1.2 1.0 365.25
1412.999988425926 -1.2 1.0 365.25
1413.0 -1.2 1.0 365.25
1413.999988425926 -1.2 1.0 365.25
1414.0 -1.2 1.0 365.25
1414.999988425926 -1.2 1.0 365.25
1415.0 -1.2 1.0 365.25
1415.999988425926 -1.2 1.0 365.25
1416.0 -1.2 1.0 365.25
1416.3125 -1.2 1.0 365.25
1417.4305555555557 -1.2 1.0 365.25
1417.6319444444443 -1.2 1.0 365.25
1420.0 -1.2 1.0 365.25
1430.0 -1.2 1.0 365.25
1440.0 -1.2 1.0 365.25
1450.0 -1.2 1.0 365.25
1460.0 -1.2 1.0 365.25
1470.0 -1.2 1.0 365.25
1480.0 -1.2 1.0 365.25
1490.0 -1.2 1.0 365.25
1500.0 -1.2 1.0 365.25
1510.0 -1.2 1.0 365.25
1520.0 -1.2 1.0 365.25
1530.0 -1.2 1.0 365.25
1540.0 -1.2 1.0 365.25
1550.0 -1.2 1.0 365.25
1560.0 -1.2 1.0 365.25
1570.0 -1.2 1.0 365.25
1580.0 -1.2 1.0 365.25
1590.0 -1.2 1.0 365.25
1600.0 -1.2 1.0 365.25
1610.0 -1.2 1.0 365.25
1612.5006944444444 -1.2 1.0 365.25
1612.541736111111 -1.2 1.0 365.25
1612.5417824074075 -1.2 1.0 365.25
1612.5835416666666 -1.2 1.0 365.25
1612.5835648148147 -1.2 1.0 365.25
1612.6251157407407 -1.2 1.0 365.25
1612.6908333333333 -1.2 1.0 365.25
1612.6909722222222 -1.2 1.0 365.25
1612.7341435185185 -1.2 1.0 365.25
1613.4172453703704 -1.2 1.0 365.25
1614.423125 -1.2 1.0 365.25
1614.4231481481481 -1.2 1.0 365.25
1615.4666666666667 -1.2 1.0 365.25
1620.0 -1.2 1.0 365.25
1630.0 -1.2 1.0 365.25
1633.3756944444444 -1.2 1.0 365.25
1633.4155555555556 -1.2 1.0 365.25
1633.415625 -1.2 1.0 365.25
1633.4577546296296 -1.2 1.0 365.25
1633.499074074074 -1.2 1.0 365.25
1633.5408564814816 -1.2 1.0 365.25
1633.6239236111112 -1.2 1.0 365.25
1633.6239583333333 -1.2 1.0 365.25
1634.6252314814815 -1.2 1.0 365.25
1635.4590277777777 -1.2 1.0 365.25
1640.0 -1.2 1.0 365.25
1640.1666666666667 -1.2 1.0 365.25
1642.3333333333333 -1.2 1.0 365.25
1648.4583333333333 -1.2 1.0 365.25
1650.0 -1.2 1.0 365.25
1660.0 -1.2 1.0 365.25
1660.5458333333333 -1.2 1.0 365.25
1660.585625 -1.2 1.0 365.25
1660.585648148148 -1.2 1.0 365.25
1660.6269444444445 -1.2 1.0 365.25
1660.6270833333333 -1.2 1.0 365.25
1660.6689583333334 -1.2 1.0 365.25
1660.6689814814815 -1.2 1.0 365.25
1660.710486111111 -1.2 1.0 365.25
1660.7105324074073 -1.2 1.0 365.25
1661.3772916666667 -1.2 1.0 365.25
1661.3773148148148 -1.2 1.0 365.25
1662.3813194444444 -1.2 1.0 365.25
1662.3813657407406 -1.2 1.0 365.25
1662.9763888888888 -1.2 1.0 365.25
1663.5416666666667 -1.2 1.0 365.25
1664.4131944444443 -1.2 1.0 365.25
1670.0 -1.2 1.0 365.25
1676.3756944444444 -1.2 1.0 365.25
1676.4165277777777 -1.2 1.0 365.25
1676.416550925926 -1.2 1.0 365.25
1676.4590972222222 -1.2 1.0 365.25
1676.4591435185184 -1.2 1.0 365.25
1676.5009027777778 -1.2 1.0 365.25
1676.500925925926 -1.2 1.0 365.25
1676.5415277777777 -1.2 1.0 365.25
1676.541550925926 -1.2 1.0 365.25
1676.6248611111112 -1.2 1.0 365.25
1676.6248842592593 -1.2 1.0 365.25
1676.8125 -1.2 1.0 365.25
1677.3125 -1.2 1.0 365.25
1677.627638888889 -1.2 1.0 365.25
1677.627662037037 -1.2 1.0 365.25
1678.5979166666666 -1.2 1.0 365.25
1680.0 -1.2 1.0 365.25
1685.642361111111 -1.2 1.0 365.25
1685.6666666666667 -1.2 1.0 365.25
1685.7083333333333 -1.2 1.0 365.25
1685.7291666666667 -1.2 1.0 365.25
1690.0 -1.2 1.0 365.25
1695.4027777777778 -1.2 1.0 365.25
1695.4270833333333 -1.2 1.0 365.25
1700.0 -1.2 1.0 365.25
1705.4027777777778 -1.2 1.0 365.25
1705.4305555555557 -1.2 1.0 365.25
1710.0 -1.2 1.0 365.25
1712.2909722222223 -1.2 1.0 365.25
1712.362488425926 -1.2 1.0 365.25
1712.3625 -1.2 1.0 365.25
1712.3638888888888 -1.2 1.0 365.25
1712.3659722222221 -1.2 1.0 365.25
1712.3715277777778 -1.2 1.0 365.25
1712.3756944444444 -1.2 1.0 365.25
1712.379861111111 -1.2 1.0 365.25
1712.3847222222223 -1.2 1.0 365.25
1712.3881944444445 -1.2 1.0 365.25
1712.3916666666667 -1.2 1.0 365.25
1712.3951388888888 -1.2 1.0 365.25
1712.3986111111112 -1.2 1.0 365.25
1712.4020833333334 -1.2 1.0 365.25
1712.4055555555556 -1.2 1.0 365.25
1712.40625 -1.2 1.0 365.25
1712.4069444444444 -1.2 1.0 365.25
1712.4076388888889 -1.2 1.0 365.25
1712.4097222222222 -1.2 1.0 365.25
1712.4125 -1.2 1.0 365.25
1712.4131944444443 -1.2 1.0 365.25
1712.4145833333334 -1.2 1.0 365.25
1712.4159722222223 -1.2 1.0 365.25
1712.4194444444445 -1.2 1.0 365.25
1712.4229166666667 -1.2 1.0 365.25
1712.4263888888888 -1.2 1.0 365.25
1712.4298611111112 -1.2 1.0 365.25
1712.4333333333334 -1.2 1.0 365.25
1712.4368055555556 -1.2 1.0 365.25
1712.4402777777777 -1.2 1.0 365.25
1712.44375 -1.2 1.0 365.25
1712.4472222222223 -1.2 1.0 365.25
1712.4479166666667 -1.2 1.0 365.25
1712.4493055555556 -1.2 1.0 365.25
1712.4506944444445 -1.2 1.0 365.25
1712.4520833333333 -1.2 1.0 365.25
1712.4541666666667 -1.2 1.0 365.25
1712.4576388888888 -1.2 1.0 365.25
1712.4611111111112 -1.2 1.0 365.25
1712.4645833333334 -1.2 1.0 365.25
1712.4680555555556 -1.2 1.0 365.25
1712.4715277777777 -1.2 1.0 365.25
1712.475 -1.2 1.0 365.25
1712.4784722222223 -1.2 1.0 365.25
1712.4819444444445 -1.2 1.0 365.25
1712.4854166666667 -1.2 1.0 365.25
1712.4875 -1.2 1.0 365.25
1712.4875694444445 -1.2 1.0 365.25
1712.6575694444443 -1.2 1.0 365.25
1712.6576388888889 -1.2 1.0 365.25
1712.6590277777777 -1.2 1.0 365.25
1712.6597222222222 -1.2 1.0 365.25
1712.6607638888888 -1.2 1.0 365.25
1712.661111111111 -1.2 1.0 365.25
1712.6618055555555 -1.2 1.0 365.25
1712.6625 -1.2 1.0 365.25
1712.6631944444443 -1.2 1.0 365.25
1712.6638888888888 -1.2 1.0 365.25
1712.6645833333334 -1.2 1.0 365.25
1712.6652777777779 -1.2 1.0 365.25
1712.6659722222223 -1.2 1.0 365.25
1712.6666666666667 -1.2 1.0 365.25
1712.6673611111112 -1.2 1.0 365.25
1712.6680555555556 -1.2 1.0 365.25
1712.66875 -1.2 1.0 365.25
1712.6694444444445 -1.2 1.0 365.25
1712.6708333333333 -1.2 1.0 365.25
1712.6722222222222 -1.2 1.0 365.25
1712.673611111111 -1.2 1.0 365.25
1712.675 -1.2 1.0 365.25
1712.6763888888888 -1.2 1.0 365.25
1712.6777777777777 -1.2 1.0 365.25
1712.6791666666666 -1.2 1.0 365.25
1712.6805555555557 -1.2 1.0 365.25
1712.6819444444445 -1.2 1.0 365.25
1712.6833333333334 -1.2 1.0 365.25
1712.6868055555556 -1.2 1.0 365.25
1712.6902777777777 -1.2 1.0 365.25
1712.69375 -1.2 1.0 365.25
1712.6972222222223 -1.2 1.0 365.25
1712.7006944444445 -1.2 1.0 365.25
1712.7041666666667 -1.2 1.0 365.25
1712.7076388888888 -1.2 1.0 365.25
1712.7111111111112 -1.2 1.0 365.25
1712.7145833333334 -1.2 1.0 365.25
1712.7180555555556 -1.2 1.0 365.25
1712.7215277777777 -1.2 1.0 365.25
1712.7284722222223 -1.2 1.0 365.25
1712.7354166666667 -1.2 1.0 365.25
1712.7423611111112 -1.2 1.0 365.25
1712.7493055555556 -1.2 1.0 365.25
1712.75625 -1.2 1.0 365.25
1712.7631944444445 -1.2 1.0 365.25
1712.7736111111112 -1.2 1.0 365.25
1712.7840277777777 -1.2 1.0 365.25
1712.7944444444445 -1.2 1.0 365.25
1712.8048611111112 -1.2 1.0 365.25
1712.8152777777777 -1.2 1.0 365.25
1712.8256944444445 -1.2 1.0 365.25
1712.8465277777777 -1.2 1.0 365.25
1712.8673611111112 -1.2 1.0 365.25
1712.8881944444445 -1.2 1.0 365.25
1712.9090277777777 -1.2 1.0 365.25
1712.9298611111112 -1.2 1.0 365.25
1712.9506944444445 -1.2 1.0 365.25
1712.9715277777777 -1.2 1.0 365.25
1712.9923611111112 -1.2 1.0 365.25
1713.0131944444445 -1.2 1.0 365.25
1713.0340277777777 -1.2 1.0 365.25
1713.0548611111112 -1.2 1.0 365.25
1713.0756944444445 -1.2 1.0 365.25
1713.0965277777777 -1.2 1.0 365.25
1713.1173611111112 -1.2 1.0 365.25
1713.1381944444445 -1.2 1.0 365.25
1713.1590277777777 -1.2 1.0 365.25
1713.1798611111112 -1.2 1.0 365.25
1713.2006944444445 -1.2 1.0 365.25
1713.2215277777777 -1.2 1.0 365.25
1713.2423611111112 -1.2 1.0 365.25
1713.2631944444445 -1.2 1.0 365.25
1713.2840277777777 -1.2 1.0 365.25
1713.3048611111112 -1.2 1.0 365.25
1713.3256944444445 -1.2 1.0 365.25
1713.3465277777777 -1.2 1.0 365.25
1713.3673611111112 -1.2 1.0 365.25
1713.3881944444445 -1.2 1.0 365.25
1713.4090277777777 -1.2 1.0 365.25
1713.4298611111112 -1.2 1.0 365.25
1713.4506944444445 -1.2 1.0 365.25
1713.4715277777777 -1.2 1.0 365.25
1713.4923611111112 -1.2 1.0 365.25
1713.5131944444445 -1.2 1.0 365.25
1713.5340277777777 -1.2 1.0 365.25
1713.5548611111112 -1.2 1.0 365.25
1713.5756944444445 -1.2 1.0 365.25
1713.5965277777777 -1.2 1.0 365.25
1713.6173611111112 -1.2 1.0 365.25
1713.6381944444445 -1.2 1.0 365.25
1713.6590277777777 -1.2 1.0 365.25
1713.6673611111112 -1.2 1.0 365.25
1714.7215277777777 -1.2 1.0 365.25
1716.5833333333333 -1.2 1.0 365.25
1717.4791666666667 -1.2 1.0 365.25
1717.5625 -1.2 1.0 365.25
1717.75 -1.2 1.0 365.25
1718.4166666666667 -1.2 1.0 365.25
1720.0 -1.2 1.0 365.25
1720.3854166666667 -1.2 1.0 365.25
1720.4166666666667 -1.2 1.0 365.25
1723.1041666666667 -1.2 1.0 365.25
1723.1215277777778 -1.2 1.0 365.25
1723.34375 -1.2 1.0 365.25
1723.375 -1.2 1.0 365.25
1723.7083333333333 -1.2 1.0 365.25
1725.4097222222222 -1.2 1.0 365.25
1725.4652777777778 -1.2 1.0 365.25
1725.5833333333333 -1.2 1.0 365.25
1726.4166666666667 -1.2 1.0 365.25
1726.4375 -1.2 1.0 365.25
1726.5833333333333 -1.2 1.0 365.25
1726.6666666666667 -1.2 1.0 365.25
1727.3958333333333 -1.2 1.0 365.25
1727.4215277777778 -1.2 1.0 365.25
1730.0 -1.2 1.0 365.25
1730.4131944444443 -1.2 1.0 365.25
1730.442361111111 -1.2 1.0 365.25
1734.3979166666666 -1.2 1.0 365.25
1734.4291666666666 -1.2 1.0 365.25
1737.1666666666667 -1.2 1.0 365.25
1737.4166666666667 -1.2 1.0 365.25
1739.3854166666667 -1.2 1.0 365.25
1739.3958333333333 -1.2 1.0 365.25
1739.4166666666667 -1.2 1.0 365.25
1739.4284722222221 -1.2 1.0 365.25
1740.0 -1.2 1.0 365.25
1740.4534722222222 -1.2 1.0 365.25
1740.4743055555555 -1.2 1.0 365.25
1741.3958333333333 -1.2 1.0 365.25
1741.4409722222222 -1.2 1.0 365.25
1741.486111111111 -1.2 1.0 365.25
1742.4375 -1.2 1.0 365.25
1742.451388888889 -1.2 1.0 365.25
1743.6875 -1.2 1.0 365.25
1743.6979166666667 -1.2 1.0 365.25
1744.6875 -1.2 1.0 365.25
1744.6979166666667 -1.2 1.0 365.25
1745.392361111111 -1.2 1.0 365.25
1745.3958333333333 -1.2 1.0 365.25
1745.4444444444443 -1.2 1.0 365.25
1745.4652777777778 -1.2 1.0 365.25
1746.3958333333333 -1.2 1.0 365.25
1746.4375 -1.2 1.0 365.25
1746.4583333333333 -1.2 1.0 365.25
1746.5833333333333 -1.2 1.0 365.25
1747.1875 -1.2 1.0 365.25
1747.4375 -1.2 1.0 365.25
1747.5416666666667 -1.2 1.0 365.25
1747.5833333333333 -1.2 1.0 365.25
1748.41875 -1.2 1.0 365.25
1748.432638888889 -1.2 1.0 365.25
1748.4576388888888 -1.2 1.0 365.25
1748.4645833333334 -1.2 1.0 365.25
1748.6020833333334 -1.2 1.0 365.25
1750.0 -1.2 1.0 365.25
1751.4479166666667 -1.2 1.0 365.25
1751.4506944444445 -1.2 1.0 365.25
1751.4777777777779 -1.2 1.0 365.25
1751.4909722222221 -1.2 1.0 365.25
1751.6458333333333 -1.2 1.0 365.25
1752.2708333333333 -1.2 1.0 365.25
1752.3541666666667 -1.2 1.0 365.25
1753.420138888889 -1.2 1.0 365.25
1753.4305555555557 -1.2 1.0 365.25
1753.4583333333333 -1.2 1.0 365.25
1753.4756944444443 -1.2 1.0 365.25
1754.4097222222222 -1.2 1.0 365.25
1754.423611111111 -1.2 1.0 365.25
1754.4583333333333 -1.2 1.0 365.25
1755.4270833333333 -1.2 1.0 365.25
1755.4444444444443 -1.2 1.0 365.25
1755.4458333333334 -1.2 1.0 365.25
1755.4618055555557 -1.2 1.0 365.25
1758.4263888888888 -1.2 1.0 365.25
1758.4298611111112 -1.2 1.0 365.25
1758.4506944444445 -1.2 1.0 365.25
1758.4527777777778 -1.2 1.0 365.25
1759.4166666666667 -1.2 1.0 365.25
1759.482638888889 -1.2 1.0 365.25
1760.0 -1.2 1.0 365.25
1760.4131944444443 -1.2 1.0 365.25
1760.4166666666667 -1.2 1.0 365.25
1760.4305555555557 -1.2 1.0 365.25
1760.454861111111 -1.2 1.0 365.25
1761.5847222222221 -1.2 1.0 365.25
1761.607638888889 -1.2 1.0 365.25
1762.4027777777778 -1.2 1.0 365.25
1762.4097222222222 -1.2 1.0 365.25
1762.4166666666667 -1.2 1.0 365.25
1762.4479166666667 -1.2 1.0 365.25
1765.4131944444443 -1.2 1.0 365.25
1765.4180555555556 -1.2 1.0 365.25
1765.425 -1.2 1.0 365.25
1765.4479166666667 -1.2 1.0 365.25
1766.4097222222222 -1.2 1.0 365.25
1766.4340277777778 -1.2 1.0 365.25
1767.4097222222222 -1.2 1.0 365.25
1767.423611111111 -1.2 1.0 365.25
1767.4270833333333 -1.2 1.0 365.25
1767.4409722222222 -1.2 1.0 365.25
1769.3958333333333 -1.2 1.0 365.25
1769.4340277777778 -1.2 1.0 365.25
1769.4618055555557 -1.2 1.0 365.25
1770.0 -1.2 1.0 365.25
1772.4375 -1.2 1.0 365.25
1773.4097222222222 -1.2 1.0 365.25
1773.423611111111 -1.2 1.0 365.25
1774.4305555555557 -1.2 1.0 365.25
1774.454861111111 -1.2 1.0 365.25
1774.4583333333333 -1.2 1.0 365.25
1774.4631944444445 -1.2 1.0 365.25
1774.4722222222222 -1.2 1.0 365.25
1774.5208333333333 -1.2 1.0 365.25
1774.5729166666667 -1.2 1.0 365.25
1774.625 -1.2 1.0 365.25
1775.420138888889 -1.2 1.0 365.25
1775.4340277777778 -1.2 1.0 365.25
1775.4652777777778 -1.2 1.0 365.25
1775.486111111111 -1.2 1.0 365.25
1780.0 -1.2 1.0 365.25
1780.4131944444443 -1.2 1.0 365.25
1780.4270833333333 -1.2 1.0 365.25
1781.3958333333333 -1.2 1.0 365.25
1781.4097222222222 -1.2 1.0 365.25
1781.4215277777778 -1.2 1.0 365.25
1781.4409722222222 -1.2 1.0 365.25
1781.4444444444443 -1.2 1.0 365.25
1781.5416666666667 -1.2 1.0 365.25
1782.4375 -1.2 1.0 365.25
1782.4583333333333 -1.2 1.0 365.25
1783.4270833333333 -1.2 1.0 365.25
1783.4409722222222 -1.2 1.0 365.25
1783.4583333333333 -1.2 1.0 365.25
1783.4618055555557 -1.2 1.0 365.25
1787.1284722222222 -1.2 1.0 365.25
1787.1458333333333 -1.2 1.0 365.25
1788.4166666666667 -1.2 1.0 365.25
1788.4479166666667 -1.2 1.0 365.25
1790.0 -1.2 1.0 365.25
1793.4534722222222 -1.2 1.0 365.25
1793.4722222222222 -1.2 1.0 365.25
1793.4895833333333 -1.2 1.0 365.25
1796.4659722222223 -1.2 1.0 365.25
1796.4791666666667 -1.2 1.0 365.25
1797.463888888889 -1.2 1.0 365.25
1797.4652777777778 -1.2 1.0 365.25
1797.4805555555556 -1.2 1.0 365.25
1797.486111111111 -1.2 1.0 365.25
1800.0 -1.2 1.0 365.25
1800.49375 -1.2 1.0 365.25
1800.5013888888889 -1.2 1.0 365.25
1800.5118055555556 -1.2 1.0 365.25
1800.5152777777778 -1.2 1.0 365.25
1801.4458333333334 -1.2 1.0 365.25
1801.4569444444444 -1.2 1.0 365.25
1802.4833333333333 -1.2 1.0 365.25
1802.517361111111 -1.2 1.0 365.25
1802.5284722222223 -1.2 1.0 365.25
1803.4375 -1.2 1.0 365.25
1803.4520833333333 -1.2 1.0 365.25
1804.4527777777778 -1.2 1.0 365.25
1804.4701388888889 -1.2 1.0 365.25
1804.4833333333333 -1.2 1.0 365.25
1804.4847222222222 -1.2 1.0 365.25
1807.486111111111 -1.2 1.0 365.25
1807.5020833333333 -1.2 1.0 365.25
1807.5090277777779 -1.2 1.0 365.25
1808.0555555555557 -1.2 1.0 365.25
1808.057638888889 -1.2 1.0 365.25
1808.0722222222223 -1.2 1.0 365.25
1808.0743055555556 -1.2 1.0 365.25
1809.25 -1.2 1.0 365.25
1809.4722222222222 -1.2 1.0 365.25
1809.4756944444443 -1.2 1.0 365.25
1809.4965277777778 -1.2 1.0 365.25
1809.5069444444443 -1.2 1.0 365.25
1810.0 -1.2 1.0 365.25
1816.2916666666667 -1.2 1.0 365.25
1820.0 -1.2 1.0 365.25
1830.0 -1.2 1.0 365.25

ctrl
5 1e-6 1 350 bcgs
1 0 0 2

1.0 0 1.0
10 1000 1e-20 1e20
0 1
sol
1 -1
iter
1e-5 1e-5 0.1 1e-4 1.1
13 0 0 5 120.
zonn
file
../../../smoothgrid2/well_screens.zonn
flxz
12
4280001 4420001 8080000 8190000 8210000 2010004 2020001 2020002 2020003 2020004 2020005 2020006
node
file
w01.node
boun
file
w01.boun
hist
tecplot
meters
days
end
stop
