** Waffle model 2014
#cont
#avs 1 1e20
#geo
#liquid
#head
#c
#material
#endavs
head 1000
nobr
bous
1
airw
1
20.0 0.1
pres
1 0 0 1000 1 2

hyco
file
w01.hyco
rock
1 0 0 2500. 1010. 1.0E-02

rlp
1 0. 0. 1. 1. 0. 1.

1 0 0 1

ppor
file
w01.ppor
zonn
file
infiltration.zonn
zonn
file
../../../smoothgrid2/out_west.zonn
zonn
file
../../../smoothgrid2/out_east.zonn
flow
file
wl.flow
stea
shea 1e-6
stim 1e20
smul 1e10
end
time
365.25 23376 10000 001 2015 1 0 0
365.25 -10 1 1 365.25
730.5 -10 1 1 365.25
1095.75 -10 1 1 365.25
1461 -10 1 1 365.25
1826.25 -10 1 1 365.25
2191.5 -10 1 1 365.25
2556.75 -10 1 1 365.25
2922 -10 1 1 365.25
3287.25 -10 1 1 365.25
3652.5 -10 1 1 365.25
4017.75 -10 1 1 365.25
4383 -10 1 1 365.25
4748.25 -10 1 1 365.25
5113.5 -10 1 1 365.25
5478.75 -10 1 1 365.25
5844 -10 1 1 365.25
6209.25 -10 1 1 365.25
6574.5 -10 1 1 365.25
6939.75 -10 1 1 365.25
7305 -10 1 1 365.25
7670.25 -10 1 1 365.25
8035.5 -10 1 1 365.25
8400.75 -10 1 1 365.25
8766 -10 1 1 365.25
9131.25 -10 1 1 365.25
9496.5 -10 1 1 365.25
9861.75 -10 1 1 365.25
10227 -10 1 1 365.25
10592.2 -10 1 1 365.25
10957.5 -10 1 1 365.25
11322.8 -10 1 1 365.25
11688 -10 1 1 365.25
12053.2 -10 1 1 365.25
12418.5 -10 1 1 365.25
12783.8 -10 1 1 365.25
13149 -10 1 1 365.25
13514.2 -10 1 1 365.25
13879.5 -10 1 1 365.25
14244.8 -10 1 1 365.25
14610 -10 1 1 365.25
14975.2 -10 1 1 365.25
15340.5 -10 1 1 365.25
15705.8 -10 1 1 365.25
16071 -10 1 1 365.25
16436.2 -10 1 1 365.25
16801.5 -10 1 1 365.25
17166.8 -10 1 1 365.25
17532 -10 1 1 365.25
17897.2 -10 1 1 365.25
18262.5 -10 1 1 365.25
18627.8 -10 1 1 365.25
18993 -10 1 1 365.25
19358.2 -10 1 1 365.25
19723.5 -10 1 1 365.25
20088.8 -10 1 1 365.25
20454 -10 1 1 365.25
20819.2 -10 1 1 365.25
21184.5 -10 1 1 365.25
21549.8 -10 1 1 365.25
21915 -10 1 1 365.25
22280.2 -10 1 1 365.25
22645.5 -10 1 1 365.25
23010.8 -10 1 1 365.25
23376 -10 1 1 365.25

ctrl
5 1e-6 1 350 bcgs
1 0 0 2

1.0 0 1.0
10 1000 1e-20 1e20
0 1
sol
1 -1
iter
1e-5 1e-5 0.1 1e-4 1.1
13 0 0 5 1200.
zonn
file
../../../smoothgrid2/well_screens.zonn
flxz
12
4280001 4420001 8080000 8190000 8210000 2010004 2020001 2020002 2020003 2020004 2020005 2020006
boun
file
w01.boun
node
file
w01.nodes
trac
file
wl.trac
hist
tecplot
heads
concentration
days
end
stop
